{
	"code": "metalspringdoor",
	"class": "BlockSpringDoor",
	"entityClass": "BlockEntitySpringDoor",
	"behaviors": [ {"name": "Lockable" } ],
	"entityBehaviors": [ {"name": "BlockEntityBehaviorSpringDoor"} ],
	"heldTpIdleAnimation": "holdunderarm",
	"attributes": {
		"handbook": { "groupBy": ["metalspringdoor-*"] },
		"triggerSound": "game:sounds/block/metaldoor",
		"closeTimeByType": {
			"metalspringdoor-*-tinbronze-*": 4,
			"metalspringdoor-*-bismuthbronze-*": 4,
			"metalspringdoor-*-blackbronze-*": 4,
			"metalspringdoor-*-iron-*": 2.5,
			"metalspringdoor-*-meteoriciron-*": 2.5,
			"metalspringdoor-*-steel-*": 1.25
		}
	},
	"variantgroups": [
		{ "code": "metaltype", "states": [ "iron" ] },
		{ "code": "springtype", "states": [ "tinbronze", "bismuthbronze", "blackbronze", "iron", "meteoriciron", "steel" ] },
		{ "loadFromProperties": "abstract/horizontalorientation" },
		{ "code": "part", "states": ["down", "up"] },
		{ "code": "state", "states": ["closed", "opened"] },
		{ "code": "knobOrientation", "states": ["left", "right"] }
	],
	"creativeinventory": { "general": ["metalspringdoor-iron-*-north-down-closed-left"], "decorative": ["metalspringdoor-iron-*-north-down-closed-left"] },
	"shapeinventory": { "base": "game:block/metal/iron/door/inventory" },
	"shapebytype": {
		"*-north-down-closed-left": { "base": "game:block/metal/iron/door/down_closed_left", "rotateY": 90 },
		"*-north-up-closed-left": { "base": "game:block/metal/iron/door/up_closed_left", "rotateY": 90 },
		"*-north-down-opened-left": { "base": "game:block/metal/iron/door/down_opened_left", "rotateY": 90 },
		"*-north-up-opened-left": { "base": "game:block/metal/iron/door/up_opened_left", "rotateY": 90 },

		"*-east-down-closed-left": { "base": "game:block/metal/iron/door/down_closed_left", "rotateY": 0 },
		"*-east-up-closed-left": { "base": "game:block/metal/iron/door/up_closed_left", "rotateY": 0 },
		"*-east-down-opened-left": { "base": "game:block/metal/iron/door/down_opened_left", "rotateY": 0 },
		"*-east-up-opened-left": { "base": "game:block/metal/iron/door/up_opened_left", "rotateY": 0 },

		"*-south-down-closed-left": { "base": "game:block/metal/iron/door/down_closed_left", "rotateY": 270 },
		"*-south-up-closed-left": { "base": "game:block/metal/iron/door/up_closed_left", "rotateY":270 },
		"*-south-down-opened-left": { "base": "game:block/metal/iron/door/down_opened_left", "rotateY": 270 },
		"*-south-up-opened-left": { "base": "game:block/metal/iron/door/up_opened_left", "rotateY": 270 },

		"*-west-down-closed-left": { "base": "game:block/metal/iron/door/down_closed_left", "rotateY": 180 },
		"*-west-up-closed-left": { "base": "game:block/metal/iron/door/up_closed_left", "rotateY": 180 },
		"*-west-down-opened-left": { "base": "game:block/metal/iron/door/down_opened_left", "rotateY": 180 },
		"*-west-up-opened-left": { "base": "game:block/metal/iron/door/up_opened_left", "rotateY": 180 },

		"*-north-down-closed-right": { "base": "game:block/metal/iron/door/down_closed_right", "rotateY": 90 },
		"*-north-up-closed-right": { "base": "game:block/metal/iron/door/up_closed_right", "rotateY": 90 },
		"*-north-down-opened-right": { "base": "game:block/metal/iron/door/down_opened_right", "rotateY": 90 },
		"*-north-up-opened-right": { "base": "game:block/metal/iron/door/up_opened_right", "rotateY": 90 },

		"*-east-down-closed-right": { "base": "game:block/metal/iron/door/down_closed_right", "rotateY": 0 },
		"*-east-up-closed-right": { "base": "game:block/metal/iron/door/up_closed_right", "rotateY": 0 },
		"*-east-down-opened-right": { "base": "game:block/metal/iron/door/down_opened_right", "rotateY": 0 },
		"*-east-up-opened-right": { "base": "game:block/metal/iron/door/up_opened_right", "rotateY": 0 },

		"*-south-down-closed-right": { "base": "game:block/metal/iron/door/down_closed_right", "rotateY": 270 },
		"*-south-up-closed-right": { "base": "game:block/metal/iron/door/up_closed_right", "rotateY":270 },
		"*-south-down-opened-right": { "base": "game:block/metal/iron/door/down_opened_right", "rotateY": 270 },
		"*-south-up-opened-right": { "base": "game:block/metal/iron/door/up_opened_right", "rotateY": 270 },

		"*-west-down-closed-right": { "base": "game:block/metal/iron/door/down_closed_right", "rotateY": 180 },
		"*-west-up-closed-right": { "base": "game:block/metal/iron/door/up_closed_right", "rotateY": 180 },
		"*-west-down-opened-right": { "base": "game:block/metal/iron/door/down_opened_right", "rotateY": 180 },
		"*-west-up-opened-right": { "base": "game:block/metal/iron/door/up_opened_right", "rotateY": 180 }
	},
	"texturesByType": {
		"*-tinbronze-*-up-*-left": { "top-right": { "base": "game:block/metal/iron/door/top-right",
							"overlays": [ "blacksmiths:block/metal/spring_overlay/tinbronze_right" ] },
	       				     "sides": { "base": "game:block/metal/iron/door/sides",
				     			"overlays": [ "blacksmiths:block/metal/spring_overlay/tinbronze_side" ] } },
		"*-tinbronze-*-up-*-right": { "top-right": { "base": "game:block/metal/iron/door/top-right",
							"overlays": [ "blacksmiths:block/metal/spring_overlay/tinbronze_right" ] },
	       				     "sides": { "base": "game:block/metal/iron/door/sides",
				     			"overlays": [ "blacksmiths:block/metal/spring_overlay/tinbronze_side" ] } },
		"*-bismuthbronze-*-up-*-left": { "top-right": { "base": "game:block/metal/iron/door/top-right",
							"overlays": [ "blacksmiths:block/metal/spring_overlay/bismuthbronze_right" ] },
	       				     "sides": { "base": "game:block/metal/iron/door/sides",
				     			"overlays": [ "blacksmiths:block/metal/spring_overlay/bismuthbronze_side" ] } },
		"*-bismuthbronze-*-up-*-right": { "top-right": { "base": "game:block/metal/iron/door/top-right",
							"overlays": [ "blacksmiths:block/metal/spring_overlay/bismuthbronze_right" ] },
	       				     "sides": { "base": "game:block/metal/iron/door/sides",
				     			"overlays": [ "blacksmiths:block/metal/spring_overlay/bismuthbronze_side" ] } },
		"*-blackbronze-*-up-*-left": { "top-right": { "base": "game:block/metal/iron/door/top-right",
							"overlays": [ "blacksmiths:block/metal/spring_overlay/blackbronze_right" ] },
	       				     "sides": { "base": "game:block/metal/iron/door/sides",
				     			"overlays": [ "blacksmiths:block/metal/spring_overlay/blackbronze_side" ] } },
		"*-blackbronze-*-up-*-right": { "top-right": { "base": "game:block/metal/iron/door/top-right",
							"overlays": [ "blacksmiths:block/metal/spring_overlay/blackbronze_right" ] },
	       				     "sides": { "base": "game:block/metal/iron/door/sides",
				     			"overlays": [ "blacksmiths:block/metal/spring_overlay/blackbronze_side" ] } },
		"*-iron-iron-*-up-*-left": { "top-right": { "base": "game:block/metal/iron/door/top-right",
							"overlays": [ "blacksmiths:block/metal/spring_overlay/iron_right" ] },
	       				     "sides": { "base": "game:block/metal/iron/door/sides",
				     			"overlays": [ "blacksmiths:block/metal/spring_overlay/iron_side" ] } },
		"*-iron-iron-*-up-*-right": { "top-right": { "base": "game:block/metal/iron/door/top-right",
							"overlays": [ "blacksmiths:block/metal/spring_overlay/iron_right" ] },
	       				     "sides": { "base": "game:block/metal/iron/door/sides",
				     			"overlays": [ "blacksmiths:block/metal/spring_overlay/iron_side" ] } },
		"*-meteoriciron-*-up-*-left": { "top-right": { "base": "game:block/metal/iron/door/top-right",
							"overlays": [ "blacksmiths:block/metal/spring_overlay/meteoriciron_right" ] },
	       				     "sides": { "base": "game:block/metal/iron/door/sides",
				     			"overlays": [ "blacksmiths:block/metal/spring_overlay/meteoriciron_side" ] } },
		"*-meteoriciron-*-up-*-right": { "top-right": { "base": "game:block/metal/iron/door/top-right",
							"overlays": [ "blacksmiths:block/metal/spring_overlay/meteoriciron_right" ] },
	       				     "sides": { "base": "game:block/metal/iron/door/sides",
				     			"overlays": [ "blacksmiths:block/metal/spring_overlay/meteoriciron_side" ] } },
		"*-steel-*-up-*-left": { "top-right": { "base": "game:block/metal/iron/door/top-right",
							"overlays": [ "blacksmiths:block/metal/spring_overlay/steel_right" ] },
	       				     "sides": { "base": "game:block/metal/iron/door/sides",
				     			"overlays": [ "blacksmiths:block/metal/spring_overlay/steel_side" ] } },
		"*-steel-*-up-*-right": { "top-right": { "base": "game:block/metal/iron/door/top-right",
							"overlays": [ "blacksmiths:block/metal/spring_overlay/steel_right" ] },
	       				     "sides": { "base": "game:block/metal/iron/door/sides",
				     			"overlays": [ "blacksmiths:block/metal/spring_overlay/steel_side" ] } }
	},
	"blockmaterial": "Metal",
	"replaceable": 500,
	"resistance": 2.5,
	"lightAbsorption": 0,
	"sidesolid": { "all": false },
	"sideopaque": { "all": false },
	"guiTransform": {
		"origin": { "x": 0.5, "y": 1, "z": 0.5 },
		"scale": 0.75
	},
	"fpHandTransform": {
		"translation": { "x": -0.27, "y": -0.12, "z": 1.12 },
		"rotation": { "x": -44, "y": 42, "z": 0 },
		"scale": 1.02
	},
	"tpHandTransform": {
		"translation": { "x": -1.1, "y": -0.7, "z": -0.6 },
		"rotation": { "x": 14, "y": 0, "z": 59 },
		"scale": 0.6
	},
	"groundTransform": {
		"rotation": { "x": -90, "y": 0, "z": 0 },
		"origin": { "x": 0.5, "y": 0, "z": 0.44 },
		"scale": 2.15
	},
	"selectionbox": { "x1": 0, "y1": 0, "z1": 0.75, "x2": 1, "y2": 1, "z2": 1,
		"rotateYByType": {
			"*-north-*-opened-left": 90,
			"*-north-*-closed-left": 0,
			"*-west-*-opened-left": 180,
			"*-west-*-closed-left": 90,

			"*-east-*-opened-left": 0,
			"*-east-*-closed-left": 270,
			"*-south-*-opened-left": 270,
			"*-south-*-closed-left": 180,

			"*-north-*-opened-right": 270,
			"*-north-*-closed-right": 0,
			"*-west-*-opened-right": 0,
			"*-west-*-closed-right": 90,

			"*-east-*-opened-right": 180,
			"*-east-*-closed-right": 270,
			"*-south-*-opened-right": 90,
			"*-south-*-closed-right": 180
		}
	},
	"collisionbox": { "x1": 0, "y1": 0, "z1": 0.875, "x2": 1, "y2": 1, "z2": 1,
		"rotateYByType": {
			"*-north-*-opened-left": 90,
			"*-north-*-closed-left": 0,
			"*-west-*-opened-left": 180,
			"*-west-*-closed-left": 90,

			"*-east-*-opened-left": 0,
			"*-east-*-closed-left": 270,
			"*-south-*-opened-left": 270,
			"*-south-*-closed-left": 180,

			"*-north-*-opened-right": 270,
			"*-north-*-closed-right": 0,
			"*-west-*-opened-right": 0,
			"*-west-*-closed-right": 90,

			"*-east-*-opened-right": 180,
			"*-east-*-closed-right": 270,
			"*-south-*-opened-right": 90,
			"*-south-*-closed-right": 180
		}
	},
	"sounds": {
		"place": "game:block/metaldoor-place",
		"break": "game:block/metaldoor-place",
		"hit": "game:block/metaldoor-place"
	},
	"materialDensity": 600,
	"tpHandTransform": {
		"translation": { "x": -1.1, "y": -0.7, "z": -0.6 },
		"rotation": { "x": 14, "y": 0, "z": 59 },
		"scale": 0.6
	}
}
