[
	{
	"ingredientPattern": "HIT,SPS,SBS",
	"ingredients": {
		"H": { "type": "item", "code": "game:hammer-*", "isTool": true, "toolDurabilityCost": 8 },
		"I": { "type": "item", "code": "game:solderingiron", "isTool": true, "toolDurabilityCost": 12 },
		"T": { "type": "item", "code": "game:solderbar-tin" },
		"P": { "type": "item", "code": "game:plank-*", "quantity": 12 },
		"S": { "type": "block", "code": "game:metalsheet-*-down", "name": "metal" },
		"B": { "type": "block", "code": "game:metalsheet-*-down", "name": "metal", "quantity": 2 }
        },
	"width": 3,
	"height": 3,
	"recipeGroup": 1,
	"output": { "type": "block", "code": "game:metalblock-{metal}", "quantity": 1  }
	},
	{
	"ingredientPattern": "HIT,SPS,SBS",
	"ingredients": {
		"H": { "type": "item", "code": "game:hammer-*", "isTool": true, "toolDurabilityCost": 8 },
		"I": { "type": "item", "code": "game:solderingiron", "isTool": true, "toolDurabilityCost": 12 },
		"T": { "type": "item", "code": "game:solderbar-tin" },
		"P": { "type": "item", "code": "game:plank-*", "quantity": 12 },
		"S": { "type": "block", "code": "blacksmiths:metalsheeting-*-shiny-down", "name": "metal" },
		"B": { "type": "block", "code": "blacksmiths:metalsheeting-*-shiny-down", "name": "metal", "quantity": 2 }
        },
	"width": 3,
	"height": 3,
	"recipeGroup": 1,
	"output": { "type": "block", "code": "blacksmiths:metalsheetblock-{metal}-shiny", "quantity": 1  }
	},
	{
	"ingredientPattern": "HIT,SPS,SBS",
	"ingredients": {
		"H": { "type": "item", "code": "game:hammer-*", "isTool": true, "toolDurabilityCost": 8 },
		"I": { "type": "item", "code": "game:solderingiron", "isTool": true, "toolDurabilityCost": 12 },
		"T": { "type": "item", "code": "game:solderbar-tin" },
		"P": { "type": "item", "code": "game:plank-*", "quantity": 12 },
		"S": { "type": "block", "code": "blacksmiths:metalsheeting-*-dull-down", "name": "metal" },
		"B": { "type": "block", "code": "blacksmiths:metalsheeting-*-dull-down", "name": "metal", "quantity": 2 }
        },
	"width": 3,
	"height": 3,
	"recipeGroup": 1,
	"output": { "type": "block", "code": "blacksmiths:metalsheetblock-{metal}-dull", "quantity": 1  }
	}
]
