[
	{
		"ingredientPattern": "H,C,S",
                "ingredients": {
			"H": { "type": "item", "code": "game:hammer-*", "isTool": true, "toolDurabilityCost": 4 },
			"C": { "type": "item", "code": "game:chisel-*", "isTool": true, "toolDurabilityCost": 4 },
			"S": { "type": "block", "code": "game:metalsheet-*-down", "quantity": 1, "name": "metal" }
                },
                "width": 1,
                "height": 3,
		"recipeGroup": 3,
                "output": { "type": "item", "code": "game:metalbit-{metal}", "quantity": 40 }
        },
	{
		"ingredientPattern": "H,C,S",
                "ingredients": {
			"H": { "type": "item", "code": "game:hammer-*", "isTool": true, "toolDurabilityCost": 4 },
			"C": { "type": "item", "code": "game:chisel-*", "isTool": true, "toolDurabilityCost": 4 },
			"S": { "type": "block", "code": "blacksmiths:metalsheeting-*-shiny-down", "quantity": 1, "name": "metal" }
                },
                "width": 1,
                "height": 3,
		"recipeGroup": 3,
                "output": { "type": "item", "code": "game:metalbit-{metal}", "quantity": 20 }
        },
	{
		"ingredientPattern": "H,C,S",
                "ingredients": {
			"H": { "type": "item", "code": "game:hammer-*", "isTool": true, "toolDurabilityCost": 4 },
			"C": { "type": "item", "code": "game:chisel-*", "isTool": true, "toolDurabilityCost": 4 },
			"S": { "type": "block", "code": "blacksmiths:metalsheeting-*-dull-down", "quantity": 1, "name": "metal" }
                },
                "width": 1,
                "height": 3,
		"recipeGroup": 3,
                "output": { "type": "item", "code": "game:metalbit-{metal}", "quantity": 20 }
        }
]
