{
	"editor": {
		"allAngles": false,
		"entityTextureMode": false
	},
	"textureWidth": 16,
	"textureHeight": 8,
	"textureSizes": { },
	"textures": { },
	"elements": [
		{
			"name": "origin",
			"from": [ 7.0, 0.0, 7.0 ],
			"to": [ 8.0, 1.0, 8.0 ],
			"shade": false,
			"rotationOrigin": [ 7.0, 0.0, 8.0 ],
			"faces": {
				"north": { "texture": "#0", "uv": [ 2.0, 3.0, 3.0, 4.0 ], "enabled": false },
				"east": { "texture": "#0", "uv": [ 3.0, 0.0, 4.0, 1.0 ], "enabled": false },
				"south": { "texture": "#0", "uv": [ 1.0, 5.5, 2.0, 6.5 ], "enabled": false },
				"west": { "texture": "#0", "uv": [ 4.0, 0.0, 5.0, 1.0 ], "enabled": false },
				"up": { "texture": "#0", "uv": [ 5.0, 2.0, 6.0, 3.0 ], "enabled": false },
				"down": { "texture": "#0", "uv": [ 0.0, 5.0, 1.0, 6.0 ], "enabled": false }
			},
			"children": [
				{
					"name": "Cube1",
					"from": [ -5.0, 0.0, 0.0 ],
					"to": [ -4.0, 1.0, 4.0 ],
					"rotationOrigin": [ -5.0, 0.0, 0.0 ],
					"faces": {
						"north": { "texture": "#metal", "uv": [ 1.0, 5.0, 2.0, 6.0 ] },
						"east": { "texture": "#metal", "uv": [ 2.0, 1.0, 6.0, 2.0 ] },
						"south": { "texture": "#metal", "uv": [ 2.0, 3.0, 3.0, 4.0 ] },
						"west": { "texture": "#metal", "uv": [ 1.0, 5.0, 5.0, 6.0 ] },
						"up": { "texture": "#metal", "uv": [ 5.0, 2.0, 6.0, 6.0 ] },
						"down": { "texture": "#metal", "uv": [ 1.0, 3.0, 2.0, 7.0 ] }
					}
				},
				{
					"name": "Cube2",
					"from": [ -4.0, 0.0, 3.0 ],
					"to": [ -3.0, 1.0, 4.0 ],
					"rotationOrigin": [ -4.0, -3.0, 3.0 ],
					"faces": {
						"north": { "texture": "#metal", "uv": [ 1.0, 5.0, 2.0, 6.0 ] },
						"east": { "texture": "#0", "uv": [ 2.0, 1.0, 3.0, 2.0 ], "enabled": false },
						"south": { "texture": "#metal", "uv": [ 2.0, 3.0, 3.0, 4.0 ] },
						"west": { "texture": "#0", "uv": [ 1.0, 5.0, 2.0, 6.0 ], "enabled": false },
						"up": { "texture": "#metal", "uv": [ 5.0, 2.0, 6.0, 3.0 ] },
						"down": { "texture": "#metal", "uv": [ 1.0, 3.0, 2.0, 4.0 ] }
					}
				},
				{
					"name": "Cube3",
					"from": [ -3.0, 0.0, -1.0 ],
					"to": [ -2.0, 1.0, 4.0 ],
					"rotationOrigin": [ -3.0, 0.0, -1.0 ],
					"faces": {
						"north": { "texture": "#metal", "uv": [ 1.0, 5.0, 2.0, 6.0 ] },
						"east": { "texture": "#metal", "uv": [ 2.0, 1.0, 7.0, 2.0 ] },
						"south": { "texture": "#metal", "uv": [ 2.0, 3.0, 3.0, 4.0 ] },
						"west": { "texture": "#metal", "uv": [ 1.0, 5.0, 6.0, 6.0 ] },
						"up": { "texture": "#metal", "uv": [ 5.0, 2.0, 6.0, 7.0 ] },
						"down": { "texture": "#metal", "uv": [ 1.0, 3.0, 2.0, 8.0 ] }
					}
				},
				{
					"name": "Cube5",
					"from": [ -1.0, 0.0, -1.0 ],
					"to": [ 0.0, 1.0, 4.0 ],
					"rotationOrigin": [ -1.0, 0.0, -1.0 ],
					"faces": {
						"north": { "texture": "#metal", "uv": [ 1.0, 5.0, 2.0, 6.0 ] },
						"east": { "texture": "#metal", "uv": [ 2.0, 1.0, 7.0, 2.0 ] },
						"south": { "texture": "#metal", "uv": [ 2.0, 3.0, 3.0, 4.0 ] },
						"west": { "texture": "#metal", "uv": [ 1.0, 5.0, 6.0, 6.0 ] },
						"up": { "texture": "#metal", "uv": [ 5.0, 2.0, 6.0, 7.0 ] },
						"down": { "texture": "#metal", "uv": [ 1.0, 3.0, 2.0, 8.0 ] }
					}
				},
				{
					"name": "Cube4",
					"from": [ -2.0, 0.0, -1.0 ],
					"to": [ -1.0, 1.0, 0.0 ],
					"rotationOrigin": [ -2.0, -3.0, -1.0 ],
					"faces": {
						"north": { "texture": "#metal", "uv": [ 1.0, 5.0, 2.0, 6.0 ] },
						"east": { "texture": "#0", "uv": [ 2.0, 1.0, 3.0, 2.0 ], "enabled": false },
						"south": { "texture": "#metal", "uv": [ 2.0, 3.0, 3.0, 4.0 ] },
						"west": { "texture": "#0", "uv": [ 1.0, 5.0, 2.0, 6.0 ], "enabled": false },
						"up": { "texture": "#metal", "uv": [ 5.0, 2.0, 6.0, 3.0 ] },
						"down": { "texture": "#metal", "uv": [ 1.0, 3.0, 2.0, 4.0 ] }
					}
				},
				{
					"name": "Cube6",
					"from": [ 0.0, 0.0, 3.0 ],
					"to": [ 1.0, 1.0, 4.0 ],
					"rotationOrigin": [ 0.0, -3.0, 3.0 ],
					"faces": {
						"north": { "texture": "#metal", "uv": [ 1.0, 5.0, 2.0, 6.0 ] },
						"east": { "texture": "#0", "uv": [ 2.0, 1.0, 3.0, 2.0 ], "enabled": false },
						"south": { "texture": "#metal", "uv": [ 2.0, 3.0, 3.0, 4.0 ] },
						"west": { "texture": "#0", "uv": [ 1.0, 5.0, 2.0, 6.0 ], "enabled": false },
						"up": { "texture": "#metal", "uv": [ 5.0, 2.0, 6.0, 3.0 ] },
						"down": { "texture": "#metal", "uv": [ 1.0, 3.0, 2.0, 4.0 ] }
					}
				},
				{
					"name": "Cube7",
					"from": [ 1.0, 0.0, -1.0 ],
					"to": [ 2.0, 1.0, 4.0 ],
					"rotationOrigin": [ 1.0, 0.0, -1.0 ],
					"faces": {
						"north": { "texture": "#metal", "uv": [ 1.0, 5.0, 2.0, 6.0 ] },
						"east": { "texture": "#metal", "uv": [ 2.0, 1.0, 7.0, 2.0 ] },
						"south": { "texture": "#metal", "uv": [ 2.0, 3.0, 3.0, 4.0 ] },
						"west": { "texture": "#metal", "uv": [ 1.0, 5.0, 6.0, 6.0 ] },
						"up": { "texture": "#metal", "uv": [ 5.0, 2.0, 6.0, 7.0 ] },
						"down": { "texture": "#metal", "uv": [ 1.0, 3.0, 2.0, 8.0 ] }
					}
				},
				{
					"name": "Cube8",
					"from": [ 2.0, 0.0, -1.0 ],
					"to": [ 3.0, 1.0, 0.0 ],
					"rotationOrigin": [ 2.0, -3.0, -1.0 ],
					"faces": {
						"north": { "texture": "#metal", "uv": [ 1.0, 5.0, 2.0, 6.0 ] },
						"east": { "texture": "#0", "uv": [ 2.0, 1.0, 3.0, 2.0 ], "enabled": false },
						"south": { "texture": "#metal", "uv": [ 2.0, 3.0, 3.0, 4.0 ] },
						"west": { "texture": "#0", "uv": [ 1.0, 5.0, 2.0, 6.0 ], "enabled": false },
						"up": { "texture": "#metal", "uv": [ 5.0, 2.0, 6.0, 3.0 ] },
						"down": { "texture": "#metal", "uv": [ 1.0, 3.0, 2.0, 4.0 ] }
					}
				},
				{
					"name": "Cube9",
					"from": [ 3.0, 0.0, -1.0 ],
					"to": [ 4.0, 1.0, 4.0 ],
					"rotationOrigin": [ 3.0, 0.0, -1.0 ],
					"faces": {
						"north": { "texture": "#metal", "uv": [ 1.0, 5.0, 2.0, 6.0 ] },
						"east": { "texture": "#metal", "uv": [ 2.0, 1.0, 7.0, 2.0 ] },
						"south": { "texture": "#metal", "uv": [ 2.0, 3.0, 3.0, 4.0 ] },
						"west": { "texture": "#metal", "uv": [ 1.0, 5.0, 6.0, 6.0 ] },
						"up": { "texture": "#metal", "uv": [ 5.0, 2.0, 6.0, 7.0 ] },
						"down": { "texture": "#metal", "uv": [ 1.0, 3.0, 2.0, 8.0 ] }
					}
				},
				{
					"name": "Cube10",
					"from": [ 4.0, 0.0, 3.0 ],
					"to": [ 5.0, 1.0, 4.0 ],
					"rotationOrigin": [ 4.0, -3.0, 3.0 ],
					"faces": {
						"north": { "texture": "#metal", "uv": [ 1.0, 5.0, 2.0, 6.0 ] },
						"east": { "texture": "#0", "uv": [ 2.0, 1.0, 3.0, 2.0 ], "enabled": false },
						"south": { "texture": "#metal", "uv": [ 2.0, 3.0, 3.0, 4.0 ] },
						"west": { "texture": "#0", "uv": [ 1.0, 5.0, 2.0, 6.0 ], "enabled": false },
						"up": { "texture": "#metal", "uv": [ 5.0, 2.0, 6.0, 3.0 ] },
						"down": { "texture": "#metal", "uv": [ 1.0, 3.0, 2.0, 4.0 ] }
					}
				},
				{
					"name": "Cube11",
					"from": [ 5.0, 0.0, -1.0 ],
					"to": [ 6.0, 1.0, 4.0 ],
					"rotationOrigin": [ 5.0, 0.0, -1.0 ],
					"faces": {
						"north": { "texture": "#metal", "uv": [ 1.0, 5.0, 2.0, 6.0 ] },
						"east": { "texture": "#metal", "uv": [ 2.0, 1.0, 7.0, 2.0 ] },
						"south": { "texture": "#metal", "uv": [ 2.0, 3.0, 3.0, 4.0 ] },
						"west": { "texture": "#metal", "uv": [ 1.0, 5.0, 6.0, 6.0 ] },
						"up": { "texture": "#metal", "uv": [ 5.0, 2.0, 6.0, 7.0 ] },
						"down": { "texture": "#metal", "uv": [ 1.0, 3.0, 2.0, 8.0 ] }
					}
				},
				{
					"name": "Cube12",
					"from": [ 6.0, 0.0, -1.0 ],
					"to": [ 7.0, 1.0, 0.0 ],
					"rotationOrigin": [ 6.0, -3.0, -1.0 ],
					"faces": {
						"north": { "texture": "#metal", "uv": [ 1.0, 5.0, 2.0, 6.0 ] },
						"east": { "texture": "#0", "uv": [ 2.0, 1.0, 3.0, 2.0 ], "enabled": false },
						"south": { "texture": "#metal", "uv": [ 2.0, 3.0, 3.0, 4.0 ] },
						"west": { "texture": "#0", "uv": [ 1.0, 5.0, 2.0, 6.0 ], "enabled": false },
						"up": { "texture": "#metal", "uv": [ 5.0, 2.0, 6.0, 3.0 ] },
						"down": { "texture": "#metal", "uv": [ 1.0, 3.0, 2.0, 4.0 ] }
					}
				},
				{
					"name": "Cube14",
					"from": [ 7.0, 0.0, -1.0 ],
					"to": [ 8.0, 1.0, 3.0 ],
					"rotationOrigin": [ 7.0, 0.0, -1.0 ],
					"faces": {
						"north": { "texture": "#metal", "uv": [ 1.0, 5.0, 2.0, 6.0 ] },
						"east": { "texture": "#metal", "uv": [ 2.0, 1.0, 6.0, 2.0 ] },
						"south": { "texture": "#metal", "uv": [ 2.0, 3.0, 3.0, 4.0 ] },
						"west": { "texture": "#metal", "uv": [ 1.0, 5.0, 5.0, 6.0 ] },
						"up": { "texture": "#metal", "uv": [ 5.0, 2.0, 6.0, 6.0 ] },
						"down": { "texture": "#metal", "uv": [ 1.0, 3.0, 2.0, 7.0 ] }
					}
				}
			]
		}
	]}
